<svg width="240" height="240" viewBox="0 0 240 240" fill="none" xmlns="http://www.w3.org/2000/svg">
<rect width="240" height="240" fill="#1A4157"/>
<g clip-path="url(#clip0_134_118)">
<path fill-rule="evenodd" clip-rule="evenodd" d="M98 81.5C98 77.9101 100.91 75 104.5 75H106V72H72V75H73.5C77.0899 75 80 77.9101 80 81.5V158.5C80 162.09 77.0899 165 73.5 165H72V168H168V120H165C165 135.09 159.503 146.242 149.533 153.672C139.494 161.155 124.735 165 106 165H104.5C100.91 165 98 162.09 98 158.5V81.5ZM90.5 75V165H95V75H90.5ZM138.306 165H165V154.381C157.937 159.221 148.956 162.749 138.306 165ZM165 150.687C159.482 154.846 152.495 158.116 144.157 160.475C146.738 159.179 149.13 157.714 151.326 156.078C157.628 151.381 162.243 145.318 165 137.933V150.687ZM87.5 75V165H83V75H87.5Z" fill="#CC9F89"/>
<path d="M163.672 108H166.749C164.497 97.8767 159.242 89.8224 151.326 83.9223C142.923 77.6598 131.632 73.9065 118 72.5635V75.5782C131.119 76.9082 141.746 80.5237 149.533 86.3277C156.648 91.6306 161.485 98.8282 163.672 108Z" fill="#CC9F89"/>
</g>
<defs>
<clipPath id="clip0_134_118">
<rect width="96" height="96" fill="white" transform="translate(72 72)"/>
</clipPath>
</defs>
</svg>
